\contentsline {section}{Introduction}{2}
\contentsline {section}{Problems Encountered}{2}
\contentsline {subsection}{Rings of Saturn}{2}
\contentsline {subsection}{Realistic Textures}{3}
\contentsline {subsection}{Rocketship}{3}
\contentsline {subsection}{Lighting}{4}
\contentsline {subsection}{Revolution}{4}
\contentsline {section}{Implementation}{5}
\contentsline {subsection}{Models}{5}
\contentsline {subsection}{Textures}{6}
\contentsline {subsection}{Lighting}{6}
\contentsline {subsection}{Revolution}{7}
\contentsline {subsection}{Movement and Camera Adjustment}{8}
\contentsline {subsection}{Animation}{8}
\contentsline {section}{Conclusion}{9}
\contentsline {section}{Appendix}{10}
