\relax 
\@writefile{toc}{\contentsline {section}{Introduction}{2}}
\@writefile{toc}{\contentsline {section}{Problems Encountered}{2}}
\@writefile{toc}{\contentsline {subsection}{Rings of Saturn}{2}}
\@writefile{toc}{\contentsline {subsection}{Realistic Textures}{3}}
\@writefile{toc}{\contentsline {subsection}{Rocketship}{3}}
\@writefile{toc}{\contentsline {subsection}{Lighting}{4}}
\@writefile{toc}{\contentsline {subsection}{Revolution}{4}}
\@writefile{toc}{\contentsline {section}{Implementation}{5}}
\@writefile{toc}{\contentsline {subsection}{Models}{5}}
\@writefile{toc}{\contentsline {subsection}{Textures}{6}}
\@writefile{toc}{\contentsline {subsection}{Lighting}{6}}
\@writefile{toc}{\contentsline {subsection}{Revolution}{7}}
\newlabel{sec:revolution}{{}{7}}
\@writefile{toc}{\contentsline {subsection}{Movement and Camera Adjustment}{8}}
\@writefile{toc}{\contentsline {subsection}{Animation}{8}}
\@writefile{toc}{\contentsline {section}{Conclusion}{9}}
\@writefile{toc}{\contentsline {section}{Appendix}{10}}
\@writefile{lof}{\contentsline {figure}{\numberline {1}{\ignorespaces HTML Source Code\relax }}{16}}
\@writefile{lof}{\contentsline {figure}{\numberline {2}{\ignorespaces Final rendering of Jupiter and its moons\relax }}{17}}
\providecommand*\caption@xref[2]{\@setref\relax\@undefined{#1}}
\newlabel{fig:jupiter}{{2}{17}}
\bibstyle{apacite}
\bibdata{draft}
\citation{*}
